DATA/24.2967.csv

Record Length,Analog:100000
Sample Interval,CH3:1.000000E-08
Vertical Units, CH3:V
Vertical Scale, CH3:+2.000000E-01
Vertical Offset, CH3:+6.666667E-03
Horizontal Units,s
Horizontal Scale,+1.000000E-04
Model Number,T3DSO2354A
Serial Number,T0101C22190207
Software Version,5.0.1.3.9R12
Source,CH3
Second,Value
-2.7600000000E-04,+3.333333E-03
-2.7599000000E-04,-1.666667E-03
-2.7598000000E-04,+5.000000E-03
-2.7597000000E-04,+1.000000E-02
-2.7596000000E-04,+1.666667E-03
-2.7595000000E-04,-5.000000E-03
-2.7594000000E-04,+5.000000E-03
-2.7593000000E-04,+8.333334E-03
-2.7592000000E-04,+1.666667E-02
-2.7591000000E-04,+8.333334E-03
-2.7590000000E-04,+6.666667E-03
-2.7589000000E-04,+5.000000E-03
-2.7588000000E-04,+8.333334E-03
-2.7587000000E-04,-1.666667E-03
-2.7586000000E-04,-6.666667E-03
-2.7585000000E-04,-3.333333E-03
-2.7584000000E-04,+0.000000E+00
-2.7583000000E-04,+0.000000E+00
-2.7582000000E-04,+6.666667E-03
-2.7581000000E-04,-1.666667E-03
-2.7580000000E-04,+5.000000E-03
-2.7579000000E-04,+1.666667E-03
-2.7578000000E-04,-1.666667E-03
-2.7577000000E-04,+1.833333E-02
-2.7576000000E-04,-3.333333E-03
-2.7575000000E-04,-1.000000E-02
-2.7574000000E-04,+1.666667E-03
-2.7573000000E-04,+3.333333E-03
-2.7572000000E-04,+1.666667E-03
-2.7571000000E-04,+8.333334E-03
-2.7570000000E-04,+1.000000E-02
-2.7569000000E-04,-3.333333E-03
-2.7568000000E-04,+0.000000E+00
-2.7567000000E-04,+1.666667E-03
-2.7566000000E-04,+0.000000E+00
-2.7565000000E-04,+0.000000E+00
-2.7564000000E-04,-3.333333E-03
-2.7563000000E-04,-8.333334E-03
-2.7562000000E-04,-1.333333E-02
-2.7561000000E-04,+1.666667E-03
-2.7560000000E-04,+5.000000E-03
-2.7559000000E-04,-3.333333E-03
-2.7558000000E-04,-5.000000E-03
-2.7557000000E-04,+8.333334E-03
-2.7556000000E-04,+3.333333E-03
-2.7555000000E-04,+3.333333E-03
-2.7554000000E-04,-6.666667E-03
-2.7553000000E-04,+0.000000E+00
-2.7552000000E-04,+0.000000E+00
-2.7551000000E-04,+8.333334E-03
-2.7550000000E-04,-1.666667E-03
-2.7549000000E-04,-5.000000E-03
-2.7548000000E-04,-8.333334E-03
-2.7547000000E-04,+5.000000E-03
-2.7546000000E-04,+6.666667E-03
-2.7545000000E-04,+5.000000E-03
-2.7544000000E-04,+0.000000E+00
-2.7543000000E-04,+5.000000E-03
-2.7542000000E-04,+5.000000E-03
-2.7541000000E-04,+8.333334E-03
-2.7540000000E-04,+8.333334E-03
-2.7539000000E-04,+1.166667E-02
-2.7538000000E-04,-1.500000E-02
-2.7537000000E-04,-5.000000E-03
-2.7536000000E-04,-8.333334E-03
-2.7535000000E-04,-1.666667E-03
-2.7534000000E-04,+8.333334E-03
-2.7533000000E-04,+1.666667E-03
-2.7532000000E-04,-8.333334E-03
-2.7531000000E-04,+6.666667E-03
-2.7530000000E-04,+3.333333E-03
-2.7529000000E-04,+3.333333E-03
-2.7528000000E-04,+1.166667E-02
-2.7527000000E-04,+1.666667E-02
-2.7526000000E-04,+1.500000E-02
-2.7525000000E-04,+8.333334E-03
-2.7524000000E-04,+8.333334E-03
-2.7523000000E-04,+6.666667E-03
-2.7522000000E-04,+8.333334E-03
-2.7521000000E-04,+1.333333E-02
-2.7520000000E-04,+1.000000E-02
-2.7519000000E-04,+0.000000E+00
-2.7518000000E-04,-3.333333E-03
-2.7517000000E-04,+1.333333E-02
-2.7516000000E-04,-5.000000E-03
-2.7515000000E-04,-3.333333E-03
-2.7514000000E-04,-1.666667E-03
-2.7513000000E-04,+0.000000E+00
-2.7512000000E-04,+6.666667E-03
-2.7511000000E-04,+1.666667E-03
-2.7510000000E-04,+0.000000E+00
-2.7509000000E-04,+6.666667E-03
-2.7508000000E-04,+1.500000E-02
-2.7507000000E-04,+1.000000E-02
-2.7506000000E-04,-1.333333E-02
-2.7505000000E-04,+6.666667E-03
-2.7504000000E-04,+0.000000E+00
-2.7503000000E-04,+1.666667E-03
-2.7502000000E-04,+1.166667E-02
-2.7501000000E-04,-1.000000E-02
-2.7500000000E-04,+1.666667E-03
-2.7499000000E-04,+6.666667E-03
-2.7498000000E-04,+1.666667E-03
-2.7497000000E-04,+1.000000E-02
-2.7496000000E-04,+8.333334E-03
-2.7495000000E-04,+1.000000E-02
-2.7494000000E-04,+1.000000E-02
-2.7493000000E-04,-1.666667E-03
-2.7492000000E-04,-8.333334E-03
-2.7491000000E-04,+1.000000E-02
-2.7490000000E-04,+1.166667E-02
-2.7489000000E-04,+8.333334E-03
-2.7488000000E-04,+1.500000E-02
-2.7487000000E-04,-3.333333E-03
-2.7486000000E-04,-3.333333E-03
-2.7485000000E-04,-6.666667E-03
-2.7484000000E-04,-6.666667E-03
-2.7483000000E-04,-8.333334E-03
-2.7482000000E-04,+6.666667E-03
-2.7481000000E-04,+3.333333E-03
-2.7480000000E-04,-3.333333E-03
-2.7479000000E-04,-5.000000E-03
-2.7478000000E-04,-5.000000E-03
-2.7477000000E-04,+0.000000E+00
-2.7476000000E-04,-1.666667E-03
-2.7475000000E-04,-6.666667E-03
-2.7474000000E-04,+1.166667E-02
-2.7473000000E-04,-1.666667E-03
-2.7472000000E-04,+5.000000E-03
-2.7471000000E-04,-6.666667E-03
-2.7470000000E-04,-1.166667E-02
-2.7469000000E-04,+6.666667E-03
-2.7468000000E-04,-6.666667E-03
-2.7467000000E-04,+6.666667E-03
-2.7466000000E-04,+1.166667E-02
-2.7465000000E-04,+1.166667E-02
-2.7464000000E-04,+2.166667E-02
-2.7463000000E-04,+0.000000E+00
-2.7462000000E-04,+0.000000E+00
-2.7461000000E-04,-5.000000E-03
-2.7460000000E-04,+1.666667E-03
-2.7459000000E-04,-1.166667E-02
-2.7458000000E-04,+1.666667E-03
-2.7457000000E-04,-1.666667E-02
-2.7456000000E-04,-1.166667E-02
-2.7455000000E-04,-3.333333E-03
-2.7454000000E-04,-1.333333E-02
-2.7453000000E-04,-2.166667E-02
-2.7452000000E-04,-1.000000E-02
-2.7451000000E-04,+1.666667E-03
-2.7450000000E-04,+6.666667E-03
-2.7449000000E-04,+5.000000E-03
-2.7448000000E-04,+3.333333E-03
-2.7447000000E-04,-1.000000E-02
-2.7446000000E-04,-3.333333E-03
-2.7445000000E-04,-1.666667E-03
-2.7444000000E-04,+0.000000E+00
-2.7443000000E-04,+0.000000E+00
-2.7442000000E-04,+0.000000E+00
-2.7441000000E-04,+8.333334E-03
-2.7440000000E-04,+1.666667E-03
-2.7439000000E-04,+3.333333E-03
-2.7438000000E-04,+3.333333E-03
-2.7437000000E-04,+1.666667E-03
-2.7436000000E-04,+3.333333E-03
-2.7435000000E-04,-3.333333E-03
-2.7434000000E-04,-3.333333E-03
-2.7433000000E-04,+1.666667E-02
-2.7432000000E-04,+1.666667E-03
-2.7431000000E-04,+1.666667E-03
-2.7430000000E-04,+1.666667E-03
-2.7429000000E-04,+0.000000E+00
-2.7428000000E-04,+5.000000E-03
-2.7427000000E-04,+6.666667E-03
-2.7426000000E-04,+0.000000E+00
-2.7425000000E-04,+1.000000E-02
-2.7424000000E-04,-1.000000E-02
-2.7423000000E-04,-1.166667E-02
-2.7422000000E-04,+0.000000E+00
-2.7421000000E-04,-6.666667E-03
-2.7420000000E-04,-3.333333E-03
-2.7419000000E-04,+0.000000E+00
-2.7418000000E-04,-8.333334E-03
-2.7417000000E-04,-1.333333E-02
-2.7416000000E-04,-3.333333E-03
-2.7415000000E-04,+1.666667E-03
-2.7414000000E-04,+3.333333E-03
-2.7413000000E-04,-1.666667E-03
-2.7412000000E-04,+1.000000E-02
-2.7411000000E-04,+1.000000E-02
-2.7410000000E-04,+3.333333E-03
-2.7409000000E-04,+1.166667E-02
-2.7408000000E-04,-3.333333E-03
-2.7407000000E-04,-1.666667E-03
-2.7406000000E-04,+1.000000E-02
-2.7405000000E-04,+1.666667E-03
-2.7404000000E-04,+3.333333E-03
-2.7403000000E-04,+5.000000E-03
-2.7402000000E-04,+6.666667E-03
-2.7401000000E-04,+1.500000E-02
-2.7400000000E-04,+6.666667E-03
-2.7399000000E-04,+2.333333E-02
-2.7398000000E-04,+1.833333E-02
-2.7397000000E-04,+8.333334E-03
-2.7396000000E-04,+1.666667E-03
-2.7395000000E-04,-1.166667E-02
-2.7394000000E-04,-1.000000E-02
-2.7393000000E-04,+0.000000E+00
-2.7392000000E-04,-3.333333E-03
-2.7391000000E-04,+5.000000E-03
-2.7390000000E-04,+1.666667E-03
-2.7389000000E-04,-1.666667E-03
-2.7388000000E-04,-1.833333E-02
-2.7387000000E-04,-1.333333E-02
-2.7386000000E-04,-1.000000E-02
-2.7385000000E-04,-1.666667E-03
-2.7384000000E-04,+6.666667E-03
-2.7383000000E-04,-1.666667E-03
-2.7382000000E-04,+6.666667E-03
-2.7381000000E-04,+0.000000E+00
-2.7380000000E-04,+0.000000E+00
-2.7379000000E-04,-5.000000E-03
-2.7378000000E-04,+2.666667E-02
-2.7377000000E-04,+1.666667E-02
-2.7376000000E-04,+1.166667E-02
-2.7375000000E-04,-1.666667E-03
-2.7374000000E-04,+8.333334E-03
-2.7373000000E-04,+6.666667E-03
-2.7372000000E-04,+1.166667E-02
-2.7371000000E-04,+6.666667E-03
-2.7370000000E-04,+6.666667E-03
-2.7369000000E-04,+5.000000E-03
-2.7368000000E-04,-6.666667E-03
-2.7367000000E-04,+8.333334E-03
-2.7366000000E-04,-3.333333E-03
-2.7365000000E-04,-6.666667E-03
-2.7364000000E-04,-1.666667E-03
-2.7363000000E-04,+1.166667E-02
-2.7362000000E-04,-1.666667E-03
-2.7361000000E-04,+5.000000E-03
-2.7360000000E-04,+1.666667E-02
-2.7359000000E-04,-1.666667E-03
-2.7358000000E-04,-1.666667E-02
-2.7357000000E-04,-3.333333E-03
-2.7356000000E-04,+1.333333E-02
-2.7355000000E-04,+3.333333E-03
-2.7354000000E-04,+3.333333E-03
-2.7353000000E-04,+0.000000E+00
-2.7352000000E-04,+8.333334E-03
-2.7351000000E-04,+5.000000E-03
-2.7350000000E-04,+1.666667E-03
-2.7349000000E-04,-3.333333E-03
-2.7348000000E-04,-1.666667E-03
-2.7347000000E-04,+1.666667E-03
-2.7346000000E-04,+6.666667E-03
-2.7345000000E-04,+0.000000E+00
-2.7344000000E-04,-6.666667E-03
-2.7343000000E-04,-5.000000E-03
-2.7342000000E-04,+6.666667E-03
-2.7341000000E-04,+1.666667E-03
-2.7340000000E-04,-1.166667E-02
-2.7339000000E-04,-5.000000E-03
-2.7338000000E-04,+8.333334E-03
-2.7337000000E-04,+3.333333E-03
-2.7336000000E-04,+0.000000E+00
-2.7335000000E-04,+6.666667E-03
-2.7334000000E-04,+8.333334E-03
-2.7333000000E-04,-1.166667E-02
-2.7332000000E-04,-1.666667E-03
-2.7331000000E-04,+3.333333E-03
-2.7330000000E-04,+5.000000E-03
-2.7329000000E-04,-3.333333E-03
-2.7328000000E-04,+8.333334E-03
-2.7327000000E-04,+1.333333E-02
-2.7326000000E-04,-5.000000E-03
-2.7325000000E-04,-5.000000E-03
-2.7324000000E-04,-8.333334E-03
-2.7323000000E-04,-8.333334E-03
-2.7322000000E-04,-1.666667E-03
-2.7321000000E-04,-8.333334E-03
-2.7320000000E-04,-1.166667E-02
-2.7319000000E-04,-1.666667E-03
-2.7318000000E-04,+6.666667E-03
-2.7317000000E-04,+3.333333E-03
-2.7316000000E-04,+1.666667E-03
-2.7315000000E-04,-1.666667E-03
-2.7314000000E-04,+6.666667E-03
-2.7313000000E-04,-3.333333E-03
-2.7312000000E-04,+1.666667E-03
-2.7311000000E-04,+0.000000E+00
-2.7310000000E-04,-1.166667E-02
-2.7309000000E-04,-1.000000E-02
-2.7308000000E-04,+0.000000E+00
-2.7307000000E-04,+1.000000E-02
-2.7306000000E-04,+5.000000E-03
-2.7305000000E-04,+6.666667E-03
-2.7304000000E-04,+5.000000E-03
-2.7303000000E-04,+0.000000E+00
-2.7302000000E-04,-3.333333E-03
-2.7301000000E-04,+5.000000E-03
-2.7300000000E-04,+6.666667E-03
-2.7299000000E-04,+6.666667E-03
-2.7298000000E-04,+3.333333E-03
-2.7297000000E-04,-5.000000E-03
-2.7296000000E-04,-8.333334E-03
-2.7295000000E-04,+1.666667E-03
-2.7294000000E-04,-6.666667E-03
-2.7293000000E-04,+1.666667E-03
-2.7292000000E-04,+5.000000E-03
-2.7291000000E-04,+5.000000E-03
-2.7290000000E-04,+6.666667E-03
-2.7289000000E-04,+5.000000E-03
-2.7288000000E-04,+8.333334E-03
-2.7287000000E-04,+1.166667E-02
-2.7286000000E-04,+1.333333E-02
-2.7285000000E-04,+6.666667E-03
-2.7284000000E-04,+8.333334E-03
-2.7283000000E-04,+1.666667E-03
-2.7282000000E-04,+8.333334E-03
-2.7281000000E-04,-1.666667E-03
-2.7280000000E-04,+1.666667E-03
-2.7279000000E-04,+6.666667E-03
-2.7278000000E-04,+8.333334E-03
-2.7277000000E-04,+8.333334E-03
-2.7276000000E-04,+6.666667E-03
-2.7275000000E-04,+0.000000E+00
-2.7274000000E-04,+1.000000E-02
-2.7273000000E-04,+5.000000E-03
-2.7272000000E-04,+1.500000E-02
-2.7271000000E-04,+0.000000E+00
-2.7270000000E-04,+1.333333E-02
-2.7269000000E-04,+5.000000E-03
-2.7268000000E-04,+5.000000E-03
-2.7267000000E-04,-3.333333E-03
-2.7266000000E-04,-3.333333E-03
-2.7265000000E-04,-5.000000E-03
-2.7264000000E-04,+1.166667E-02
-2.7263000000E-04,+1.666667E-03
-2.7262000000E-04,+6.666667E-03
-2.7261000000E-04,+0.000000E+00
-2.7260000000E-04,+0.000000E+00
-2.7259000000E-04,+8.333334E-03
-2.7258000000E-04,+1.333333E-02
-2.7257000000E-04,+5.000000E-03
-2.7256000000E-04,+6.666667E-03
-2.7255000000E-04,+0.000000E+00
-2.7254000000E-04,-5.000000E-03
-2.7253000000E-04,+1.666667E-02
-2.7252000000E-04,-5.000000E-03
-2.7251000000E-04,+6.666667E-03
-2.7250000000E-04,+1.666667E-03
-2.7249000000E-04,-8.333334E-03
-2.7248000000E-04,+3.333333E-03
-2.7247000000E-04,-3.333333E-03
-2.7246000000E-04,+5.000000E-03
-2.7245000000E-04,+6.666667E-03
-2.7244000000E-04,-1.666667E-03
-2.7243000000E-04,+1.666667E-03
-2.7242000000E-04,+6.666667E-03
-2.7241000000E-04,+1.333333E-02
-2.7240000000E-04,+1.000000E-02
-2.7239000000E-04,+8.333334E-03
-2.7238000000E-04,+1.000000E-02
-2.7237000000E-04,-3.333333E-03
-2.7236000000E-04,+5.000000E-03
-2.7235000000E-04,-1.666667E-03
-2.7234000000E-04,+5.000000E-03
-2.7233000000E-04,+0.000000E+00
-2.7232000000E-04,+0.000000E+00
-2.7231000000E-04,+1.666667E-03
-2.7230000000E-04,+6.666667E-03
-2.7229000000E-04,+1.500000E-02
-2.7228000000E-04,+1.666667E-02
-2.7227000000E-04,+1.666667E-03
-2.7226000000E-04,-1.666667E-03
-2.7225000000E-04,-3.333333E-03
-2.7224000000E-04,+1.666667E-03
-2.7223000000E-04,+3.333333E-03
-2.7222000000E-04,+6.666667E-03
-2.7221000000E-04,+1.333333E-02
-2.7220000000E-04,+8.333334E-03
-2.7219000000E-04,+6.666667E-03
-2.7218000000E-04,-1.666667E-03
-2.7217000000E-04,-5.000000E-03
-2.7216000000E-04,+6.666667E-03
-2.7215000000E-04,+1.000000E-02
-2.7214000000E-04,-1.666667E-03
-2.7213000000E-04,+6.666667E-03
-2.7212000000E-04,+1.666667E-03
-2.7211000000E-04,+1.000000E-02
-2.7210000000E-04,-5.000000E-03
-2.7209000000E-04,-8.333334E-03
-2.7208000000E-04,+1.666667E-03
-2.7207000000E-04,-1.666667E-03
-2.7206000000E-04,-1.666667E-03
-2.7205000000E-04,+6.666667E-03
-2.7204000000E-04,+2.000000E-02
-2.7203000000E-04,+2.000000E-02
-2.7202000000E-04,+6.666667E-03
-2.7201000000E-04,+8.333334E-03
-2.7200000000E-04,+1.666667E-03
-2.7199000000E-04,-1.333333E-02
-2.7198000000E-04,+0.000000E+00
-2.7197000000E-04,+1.500000E-02
-2.7196000000E-04,+6.666667E-03
-2.7195000000E-04,+0.000000E+00
-2.7194000000E-04,-2.166667E-02
-2.7193000000E-04,-5.000000E-03
-2.7192000000E-04,+8.333334E-03
-2.7191000000E-04,+3.333333E-03
-2.7190000000E-04,-1.166667E-02
-2.7189000000E-04,+1.166667E-02
-2.7188000000E-04,+1.000000E-02
-2.7187000000E-04,-6.666667E-03
-2.7186000000E-04,-1.166667E-02
-2.7185000000E-04,-5.000000E-03
-2.7184000000E-04,+5.000000E-03
-2.7183000000E-04,+5.000000E-03
-2.7182000000E-04,+1.000000E-02
-2.7181000000E-04,+3.333333E-03
-2.7180000000E-04,+5.000000E-03
-2.7179000000E-04,+3.333333E-03
-2.7178000000E-04,-1.000000E-02
-2.7177000000E-04,+6.666667E-03
-2.7176000000E-04,+1.666667E-03
-2.7175000000E-04,-1.666667E-03
-2.7174000000E-04,+8.333334E-03
-2.7173000000E-04,+1.666667E-03
-2.7172000000E-04,+8.333334E-03
-2.7171000000E-04,-1.333333E-02
-2.7170000000E-04,+3.333333E-03
-2.7169000000E-04,+3.333333E-03
-2.7168000000E-04,+1.500000E-02
-2.7167000000E-04,+1.166667E-02
-2.7166000000E-04,-1.333333E-02
-2.7165000000E-04,-3.333333E-03
-2.7164000000E-04,-5.000000E-03
-2.7163000000E-04,-1.166667E-02
-2.7162000000E-04,+5.000000E-03
-2.7161000000E-04,+3.333333E-03
-2.7160000000E-04,+0.000000E+00
-2.7159000000E-04,-8.333334E-03
-2.7158000000E-04,+0.000000E+00
-2.7157000000E-04,+1.000000E-02
-2.7156000000E-04,+1.333333E-02
-2.7155000000E-04,+0.000000E+00
-2.7154000000E-04,+8.333334E-03
-2.7153000000E-04,+8.333334E-03
-2.7152000000E-04,+8.333334E-03
-2.7151000000E-04,+1.500000E-02
-2.7150000000E-04,-3.333333E-03
-2.7149000000E-04,-1.666667E-03
-2.7148000000E-04,+5.000000E-03
-2.7147000000E-04,+5.000000E-03
-2.7146000000E-04,+8.333334E-03
-2.7145000000E-04,-1.666667E-03
-2.7144000000E-04,-1.333333E-02
-2.7143000000E-04,-5.000000E-03
-2.7142000000E-04,-1.666667E-03
-2.7141000000E-04,-1.666667E-02
-2.7140000000E-04,-1.000000E-02
-2.7139000000E-04,-3.333333E-03
-2.7138000000E-04,+6.666667E-03
-2.7137000000E-04,+6.666667E-03
-2.7136000000E-04,+1.333333E-02
-2.7135000000E-04,-1.666667E-03
-2.7134000000E-04,+3.333333E-03
-2.7133000000E-04,+1.833333E-02
-2.7132000000E-04,+1.333333E-02
-2.7131000000E-04,+1.000000E-02
-2.7130000000E-04,+1.666667E-03
-2.7129000000E-04,+1.333333E-02
-2.7128000000E-04,+1.333333E-02
-2.7127000000E-04,+1.166667E-02
-2.7126000000E-04,+1.166667E-02
-2.7125000000E-04,+0.000000E+00
-2.7124000000E-04,+6.666667E-03
-2.7123000000E-04,+1.666667E-03
-2.7122000000E-04,-1.666667E-03
-2.7121000000E-04,+6.666667E-03
-2.7120000000E-04,+0.000000E+00
-2.7119000000E-04,-1.666667E-02
-2.7118000000E-04,-1.500000E-02
-2.7117000000E-04,-1.333333E-02
-2.7116000000E-04,-1.000000E-02
-2.7115000000E-04,+1.666667E-03
-2.7114000000E-04,+5.000000E-03
-2.7113000000E-04,-1.666667E-03
-2.7112000000E-04,-3.333333E-03
-2.7111000000E-04,-1.166667E-02
-2.7110000000E-04,-1.666667E-03
-2.7109000000E-04,+1.666667E-02
-2.7108000000E-04,+5.000000E-03
-2.7107000000E-04,-1.666667E-03
-2.7106000000E-04,+6.666667E-03
-2.7105000000E-04,+1.500000E-02
-2.7104000000E-04,+1.166667E-02
-2.7103000000E-04,+1.166667E-02
-2.7102000000E-04,+1.666667E-02
-2.7101000000E-04,+3.333333E-03
-2.7100000000E-04,+0.000000E+00
-2.7099000000E-04,-1.666667E-03
-2.7098000000E-04,+5.000000E-03
-2.7097000000E-04,+1.666667E-03
-2.7096000000E-04,-1.666667E-03
-2.7095000000E-04,-1.166667E-02
-2.7094000000E-04,+1.000000E-02
-2.7093000000E-04,+0.000000E+00
-2.7092000000E-04,+1.666667E-03
-2.7091000000E-04,-8.333334E-03
-2.7090000000E-04,-1.666667E-03
-2.7089000000E-04,+1.000000E-02
-2.7088000000E-04,+1.000000E-02
-2.7087000000E-04,+6.666667E-03
-2.7086000000E-04,+6.666667E-03
-2.7085000000E-04,+1.166667E-02
-2.7084000000E-04,-1.666667E-03
-2.7083000000E-04,+6.666667E-03
-2.7082000000E-04,+1.666667E-03
-2.7081000000E-04,-6.666667E-03
-2.7080000000E-04,+0.000000E+00
-2.7079000000E-04,-5.000000E-03
-2.7078000000E-04,+3.333333E-03
-2.7077000000E-04,+1.000000E-02
-2.7076000000E-04,+0.000000E+00
-2.7075000000E-04,+5.000000E-03
-2.7074000000E-04,-3.333333E-03
-2.7073000000E-04,-5.000000E-03
-2.7072000000E-04,+8.333334E-03
-2.7071000000E-04,-1.666667E-03
-2.7070000000E-04,-1.500000E-02
-2.7069000000E-04,-3.333333E-03
-2.7068000000E-04,-5.000000E-03
-2.7067000000E-04,-3.333333E-03
-2.7066000000E-04,+1.666667E-03
-2.7065000000E-04,-5.000000E-03
-2.7064000000E-04,+3.333333E-03
-2.7063000000E-04,+1.666667E-03
-2.7062000000E-04,-5.000000E-03
-2.7061000000E-04,-1.666667E-03
-2.7060000000E-04,+5.000000E-03
-2.7059000000E-04,+5.000000E-03
-2.7058000000E-04,+6.666667E-03
-2.7057000000E-04,+3.333333E-03
-2.7056000000E-04,+5.000000E-03
-2.7055000000E-04,-1.666667E-03
-2.7054000000E-04,-1.000000E-02
-2.7053000000E-04,+1.166667E-02
-2.7052000000E-04,+1.333333E-02
-2.7051000000E-04,+1.333333E-02
-2.7050000000E-04,+8.333334E-03
-2.7049000000E-04,+6.666667E-03
-2.7048000000E-04,+6.666667E-03
-2.7047000000E-04,+2.000000E-02
-2.7046000000E-04,+1.000000E-02
-2.7045000000E-04,+0.000000E+00
-2.7044000000E-04,+1.333333E-02
-2.7043000000E-04,+1.000000E-02
-2.7042000000E-04,+1.000000E-02
-2.7041000000E-04,+8.333334E-03
-2.7040000000E-04,-1.666667E-03
-2.7039000000E-04,+6.666667E-03
-2.7038000000E-04,+1.666667E-03
-2.7037000000E-04,+5.000000E-03
-2.7036000000E-04,+5.000000E-03
-2.7035000000E-04,+1.666667E-03
-2.7034000000E-04,+1.666667E-03
-2.7033000000E-04,-3.333333E-03
-2.7032000000E-04,-5.000000E-03
-2.7031000000E-04,+5.000000E-03
-2.7030000000E-04,+0.000000E+00
-2.7029000000E-04,+0.000000E+00
-2.7028000000E-04,-1.166667E-02
-2.7027000000E-04,-1.666667E-03
-2.7026000000E-04,+1.666667E-03
-2.7025000000E-04,+0.000000E+00
-2.7024000000E-04,-8.333334E-03
-2.7023000000E-04,-5.000000E-03
-2.7022000000E-04,+0.000000E+00
-2.7021000000E-04,-1.000000E-02
-2.7020000000E-04,-3.333333E-03
-2.7019000000E-04,-3.333333E-03
-2.7018000000E-04,-5.000000E-03
-2.7017000000E-04,+0.000000E+00
-2.7016000000E-04,-1.666667E-03
-2.7015000000E-04,+1.666667E-03
-2.7014000000E-04,+1.666667E-02
-2.7013000000E-04,+5.000000E-03
-2.7012000000E-04,+1.166667E-02
-2.7011000000E-04,+1.000000E-02
-2.7010000000E-04,+8.333334E-03
-2.7009000000E-04,+1.166667E-02
-2.7008000000E-04,+1.666667E-03
-2.7007000000E-04,-3.333333E-03
-2.7006000000E-04,+1.666667E-03
-2.7005000000E-04,-5.000000E-03
-2.7004000000E-04,+8.333334E-03
-2.7003000000E-04,+1.333333E-02
-2.7002000000E-04,+6.666667E-03
-2.7001000000E-04,-5.000000E-03
-2.7000000000E-04,-3.333333E-03
-2.6999000000E-04,+3.333333E-03
-2.6998000000E-04,+0.000000E+00
-2.6997000000E-04,+8.333334E-03
-2.6996000000E-04,+5.000000E-03
-2.6995000000E-04,-3.333333E-03
-2.6994000000E-04,+5.000000E-03
-2.6993000000E-04,-5.000000E-03
-2.6992000000E-04,+5.000000E-03
-2.6991000000E-04,+0.000000E+00
-2.6990000000E-04,-1.333333E-02
-2.6989000000E-04,+8.333334E-03
-2.6988000000E-04,-1.666667E-03
-2.6987000000E-04,-6.666667E-03
-2.6986000000E-04,+8.333334E-03
