DATA/T3DSO2354A_CSV_C3_2.csv

Record Length,Analog:100000
Sample Interval,CH3:2.000000E-07
Vertical Units, CH3:V
Vertical Scale, CH3:+2.000000E-01
Vertical Offset, CH3:-2.000000E-01
Horizontal Units,s
Horizontal Scale,+2.000000E-03
Model Number,T3DSO2354A
Serial Number,T0101C22190207
Software Version,5.0.1.3.9R12
Source,CH3
Second,Value
-7.5200000000E-03,+1.833333E-02
-7.5198000000E-03,-3.333330E-03
-7.5196000000E-03,+1.666665E-03
-7.5194000000E-03,-1.666665E-03
-7.5192000000E-03,+1.666665E-03
-7.5190000000E-03,+4.999995E-03
-7.5188000000E-03,+3.333330E-03
-7.5186000000E-03,+8.333325E-03
-7.5184000000E-03,+1.666665E-03
-7.5182000000E-03,+1.666665E-03
-7.5180000000E-03,+1.666667E-02
-7.5178000000E-03,+4.999995E-03
-7.5176000000E-03,-1.166667E-02
-7.5174000000E-03,+3.333330E-03
-7.5172000000E-03,-1.666665E-03
-7.5170000000E-03,+8.333325E-03
-7.5168000000E-03,+1.666665E-03
-7.5166000000E-03,+1.333334E-02
-7.5164000000E-03,+1.000001E-02
-7.5162000000E-03,+8.333325E-03
-7.5160000000E-03,-1.666665E-03
-7.5158000000E-03,-1.666665E-03
-7.5156000000E-03,+1.000001E-02
-7.5154000000E-03,-4.999995E-03
-7.5152000000E-03,+1.333334E-02
-7.5150000000E-03,+6.666660E-03
-7.5148000000E-03,-1.666665E-03
-7.5146000000E-03,+0.000000E+00
-7.5144000000E-03,+3.333330E-03
-7.5142000000E-03,-1.666665E-03
-7.5140000000E-03,+3.333330E-03
-7.5138000000E-03,-4.999995E-03
-7.5136000000E-03,+4.999995E-03
-7.5134000000E-03,+0.000000E+00
-7.5132000000E-03,-3.333330E-03
-7.5130000000E-03,+3.333330E-03
-7.5128000000E-03,+8.333325E-03
-7.5126000000E-03,+1.000001E-02
-7.5124000000E-03,-6.666675E-03
-7.5122000000E-03,+1.666665E-03
-7.5120000000E-03,+1.166667E-02
-7.5118000000E-03,-1.333334E-02
-7.5116000000E-03,+1.000001E-02
-7.5114000000E-03,-2.333334E-02
-7.5112000000E-03,+1.666665E-03
-7.5110000000E-03,+3.333330E-03
-7.5108000000E-03,+8.333325E-03
-7.5106000000E-03,+1.000001E-02
-7.5104000000E-03,-1.666665E-03
-7.5102000000E-03,+6.666660E-03
-7.5100000000E-03,+1.166667E-02
-7.5098000000E-03,+3.333330E-03
-7.5096000000E-03,+1.333334E-02
-7.5094000000E-03,+1.166667E-02
-7.5092000000E-03,+3.333330E-03
-7.5090000000E-03,-1.666665E-03
-7.5088000000E-03,+1.000001E-02
-7.5086000000E-03,-8.333340E-03
-7.5084000000E-03,+4.999995E-03
-7.5082000000E-03,+1.166667E-02
-7.5080000000E-03,+8.333325E-03
-7.5078000000E-03,+6.666660E-03
-7.5076000000E-03,+3.333330E-03
-7.5074000000E-03,+1.166667E-02
-7.5072000000E-03,+6.666660E-03
-7.5070000000E-03,-1.666665E-03
-7.5068000000E-03,+3.333330E-03
-7.5066000000E-03,-2.000000E-02
-7.5064000000E-03,+1.666667E-02
-7.5062000000E-03,+1.333334E-02
-7.5060000000E-03,+3.333330E-03
-7.5058000000E-03,+6.666660E-03
-7.5056000000E-03,-1.166667E-02
-7.5054000000E-03,+1.666667E-02
-7.5052000000E-03,+1.666665E-03
-7.5050000000E-03,+6.666660E-03
-7.5048000000E-03,+1.166667E-02
-7.5046000000E-03,-1.333334E-02
-7.5044000000E-03,+0.000000E+00
-7.5042000000E-03,+1.000001E-02
-7.5040000000E-03,-6.666675E-03
-7.5038000000E-03,+1.333334E-02
-7.5036000000E-03,+0.000000E+00
-7.5034000000E-03,+1.000001E-02
-7.5032000000E-03,+4.999995E-03
-7.5030000000E-03,+6.666660E-03
-7.5028000000E-03,+6.666660E-03
-7.5026000000E-03,+1.166667E-02
-7.5024000000E-03,+4.999995E-03
-7.5022000000E-03,+2.000000E-02
-7.5020000000E-03,+1.333334E-02
-7.5018000000E-03,+4.999995E-03
-7.5016000000E-03,+3.333330E-03
-7.5014000000E-03,+0.000000E+00
-7.5012000000E-03,+1.333334E-02
-7.5010000000E-03,+1.666665E-03
-7.5008000000E-03,+0.000000E+00
-7.5006000000E-03,+4.999995E-03
-7.5004000000E-03,+1.000001E-02
-7.5002000000E-03,-4.999995E-03
-7.5000000000E-03,+0.000000E+00
-7.4998000000E-03,+1.833333E-02
-7.4996000000E-03,+4.999995E-03
-7.4994000000E-03,-3.333330E-03
-7.4992000000E-03,+0.000000E+00
-7.4990000000E-03,+1.666667E-02
-7.4988000000E-03,+1.333334E-02
-7.4986000000E-03,+1.666667E-02
-7.4984000000E-03,+8.333325E-03
-7.4982000000E-03,+1.166667E-02
-7.4980000000E-03,-1.666665E-03
-7.4978000000E-03,+2.333333E-02
-7.4976000000E-03,+1.333334E-02
-7.4974000000E-03,+8.333325E-03
-7.4972000000E-03,+4.999995E-03
-7.4970000000E-03,+8.333325E-03
-7.4968000000E-03,+8.333325E-03
-7.4966000000E-03,+1.666665E-03
-7.4964000000E-03,-3.333330E-03
-7.4962000000E-03,-1.666665E-03
-7.4960000000E-03,+6.666660E-03
-7.4958000000E-03,+0.000000E+00
-7.4956000000E-03,+6.666660E-03
-7.4954000000E-03,+1.333334E-02
-7.4952000000E-03,-4.999995E-03
-7.4950000000E-03,+1.000001E-02
-7.4948000000E-03,-1.666665E-03
-7.4946000000E-03,+1.666665E-03
-7.4944000000E-03,+3.333330E-03
-7.4942000000E-03,-1.666665E-03
-7.4940000000E-03,+1.666665E-03
-7.4938000000E-03,+8.333325E-03
-7.4936000000E-03,+4.999995E-03
-7.4934000000E-03,-3.333330E-03
-7.4932000000E-03,-4.999995E-03
-7.4930000000E-03,-6.666675E-03
-7.4928000000E-03,-4.999995E-03
-7.4926000000E-03,+8.333325E-03
-7.4924000000E-03,+1.166667E-02
-7.4922000000E-03,-3.333330E-03
-7.4920000000E-03,+1.500000E-02
-7.4918000000E-03,-1.000001E-02
-7.4916000000E-03,+4.999995E-03
-7.4914000000E-03,+6.666660E-03
-7.4912000000E-03,+3.333330E-03
-7.4910000000E-03,+1.666665E-03
-7.4908000000E-03,+1.500000E-02
-7.4906000000E-03,+1.666665E-03
-7.4904000000E-03,-8.333340E-03
-7.4902000000E-03,+1.666665E-03
-7.4900000000E-03,+3.333330E-03
-7.4898000000E-03,+1.666665E-03
-7.4896000000E-03,+4.999995E-03
-7.4894000000E-03,+6.666660E-03
-7.4892000000E-03,+4.999995E-03
-7.4890000000E-03,-1.166667E-02
-7.4888000000E-03,-1.666665E-03
-7.4886000000E-03,-1.666665E-03
-7.4884000000E-03,+1.500000E-02
-7.4882000000E-03,+1.000001E-02
-7.4880000000E-03,+1.000001E-02
-7.4878000000E-03,+6.666660E-03
-7.4876000000E-03,+0.000000E+00
-7.4874000000E-03,+4.999995E-03
-7.4872000000E-03,+0.000000E+00
-7.4870000000E-03,+4.999995E-03
-7.4868000000E-03,-1.666665E-03
-7.4866000000E-03,+1.333334E-02
-7.4864000000E-03,+1.000001E-02
-7.4862000000E-03,+1.000001E-02
-7.4860000000E-03,+0.000000E+00
-7.4858000000E-03,+3.333330E-03
-7.4856000000E-03,+3.333330E-03
-7.4854000000E-03,-1.666665E-03
-7.4852000000E-03,+8.333325E-03
-7.4850000000E-03,+1.000001E-02
-7.4848000000E-03,+1.666665E-03
-7.4846000000E-03,-8.333340E-03
-7.4844000000E-03,-1.333334E-02
-7.4842000000E-03,-1.666665E-03
-7.4840000000E-03,-4.999995E-03
-7.4838000000E-03,-4.999995E-03
-7.4836000000E-03,+1.166667E-02
-7.4834000000E-03,+3.333330E-03
-7.4832000000E-03,+1.833333E-02
-7.4830000000E-03,+8.333325E-03
-7.4828000000E-03,+1.833333E-02
-7.4826000000E-03,+0.000000E+00
-7.4824000000E-03,+3.333330E-03
-7.4822000000E-03,+1.000001E-02
-7.4820000000E-03,+6.666660E-03
-7.4818000000E-03,-6.666675E-03
-7.4816000000E-03,-6.666675E-03
-7.4814000000E-03,+1.500000E-02
-7.4812000000E-03,+4.999995E-03
-7.4810000000E-03,+1.166667E-02
-7.4808000000E-03,+1.666665E-03
-7.4806000000E-03,+1.000001E-02
-7.4804000000E-03,+6.666660E-03
-7.4802000000E-03,-4.999995E-03
-7.4800000000E-03,+8.333325E-03
-7.4798000000E-03,-1.666665E-03
-7.4796000000E-03,-4.999995E-03
-7.4794000000E-03,+1.666667E-02
-7.4792000000E-03,+1.333334E-02
-7.4790000000E-03,+8.333325E-03
-7.4788000000E-03,+6.666660E-03
-7.4786000000E-03,-3.333330E-03
-7.4784000000E-03,+1.666665E-03
-7.4782000000E-03,+0.000000E+00
-7.4780000000E-03,+6.666660E-03
-7.4778000000E-03,-6.666675E-03
-7.4776000000E-03,-1.166667E-02
-7.4774000000E-03,-6.666675E-03
-7.4772000000E-03,+1.000001E-02
-7.4770000000E-03,+4.999995E-03
-7.4768000000E-03,+4.999995E-03
-7.4766000000E-03,+4.999995E-03
-7.4764000000E-03,-3.333330E-03
-7.4762000000E-03,+0.000000E+00
-7.4760000000E-03,-4.999995E-03
-7.4758000000E-03,+1.166667E-02
-7.4756000000E-03,-4.999995E-03
-7.4754000000E-03,+1.000001E-02
-7.4752000000E-03,-6.666675E-03
-7.4750000000E-03,-1.000001E-02
-7.4748000000E-03,-1.166667E-02
-7.4746000000E-03,-1.666665E-03
-7.4744000000E-03,-1.500000E-02
-7.4742000000E-03,+6.666660E-03
-7.4740000000E-03,+4.999995E-03
-7.4738000000E-03,+8.333325E-03
-7.4736000000E-03,+4.999995E-03
-7.4734000000E-03,-1.666665E-03
-7.4732000000E-03,+3.333330E-03
-7.4730000000E-03,-1.666665E-03
-7.4728000000E-03,+1.000001E-02
-7.4726000000E-03,+1.333334E-02
-7.4724000000E-03,-3.333330E-03
-7.4722000000E-03,+1.666665E-03
-7.4720000000E-03,+0.000000E+00
-7.4718000000E-03,+1.166667E-02
-7.4716000000E-03,-6.666675E-03
-7.4714000000E-03,-3.333330E-03
-7.4712000000E-03,+3.333330E-03
-7.4710000000E-03,+0.000000E+00
-7.4708000000E-03,-3.333330E-03
-7.4706000000E-03,-1.666665E-03
-7.4704000000E-03,-1.000001E-02
-7.4702000000E-03,+4.999995E-03
-7.4700000000E-03,+1.500000E-02
-7.4698000000E-03,+0.000000E+00
-7.4696000000E-03,-1.666665E-03
-7.4694000000E-03,-1.666665E-03
-7.4692000000E-03,+1.666665E-03
-7.4690000000E-03,+8.333325E-03
-7.4688000000E-03,+1.666665E-03
-7.4686000000E-03,+1.666667E-02
-7.4684000000E-03,+6.666660E-03
-7.4682000000E-03,-3.333330E-03
-7.4680000000E-03,+0.000000E+00
-7.4678000000E-03,-8.333340E-03
-7.4676000000E-03,+6.666660E-03
-7.4674000000E-03,+3.333330E-03
-7.4672000000E-03,-1.666665E-03
-7.4670000000E-03,-1.000001E-02
-7.4668000000E-03,+3.333330E-03
-7.4666000000E-03,+3.333330E-03
-7.4664000000E-03,+6.666660E-03
-7.4662000000E-03,+1.000001E-02
-7.4660000000E-03,+1.166667E-02
-7.4658000000E-03,-1.166667E-02
-7.4656000000E-03,+1.166667E-02
-7.4654000000E-03,-1.666665E-03
-7.4652000000E-03,+6.666660E-03
-7.4650000000E-03,+1.166667E-02
-7.4648000000E-03,-3.333330E-03
-7.4646000000E-03,+1.000001E-02
-7.4644000000E-03,+8.333325E-03
-7.4642000000E-03,+1.666665E-03
-7.4640000000E-03,+1.666665E-03
-7.4638000000E-03,-4.999995E-03
-7.4636000000E-03,+6.666660E-03
-7.4634000000E-03,+1.000001E-02
-7.4632000000E-03,+1.666665E-03
-7.4630000000E-03,+4.999995E-03
-7.4628000000E-03,+4.999995E-03
-7.4626000000E-03,-1.666665E-03
-7.4624000000E-03,+0.000000E+00
-7.4622000000E-03,-4.999995E-03
-7.4620000000E-03,+8.333325E-03
-7.4618000000E-03,+1.666665E-03
-7.4616000000E-03,+4.999995E-03
-7.4614000000E-03,+8.333325E-03
-7.4612000000E-03,+0.000000E+00
-7.4610000000E-03,+0.000000E+00
-7.4608000000E-03,+4.999995E-03
-7.4606000000E-03,+1.666665E-03
-7.4604000000E-03,+1.666665E-03
-7.4602000000E-03,+8.333325E-03
-7.4600000000E-03,+1.666665E-03
-7.4598000000E-03,-2.000000E-02
-7.4596000000E-03,-3.333330E-03
-7.4594000000E-03,+0.000000E+00
-7.4592000000E-03,+0.000000E+00
-7.4590000000E-03,+3.333330E-03
-7.4588000000E-03,+0.000000E+00
-7.4586000000E-03,+1.000001E-02
-7.4584000000E-03,+1.666667E-02
-7.4582000000E-03,-1.666665E-03
-7.4580000000E-03,+0.000000E+00
-7.4578000000E-03,+1.000001E-02
-7.4576000000E-03,+1.666665E-03
-7.4574000000E-03,+4.999995E-03
-7.4572000000E-03,-3.333330E-03
-7.4570000000E-03,+6.666660E-03
-7.4568000000E-03,-1.666665E-03
-7.4566000000E-03,+0.000000E+00
-7.4564000000E-03,+8.333325E-03
-7.4562000000E-03,-6.666675E-03
-7.4560000000E-03,-1.666665E-03
-7.4558000000E-03,+1.000001E-02
-7.4556000000E-03,-6.666675E-03
-7.4554000000E-03,+4.999995E-03
-7.4552000000E-03,+3.333330E-03
-7.4550000000E-03,+1.333334E-02
-7.4548000000E-03,+1.666665E-03
-7.4546000000E-03,+2.333333E-02
-7.4544000000E-03,+1.666667E-02
-7.4542000000E-03,+6.666660E-03
-7.4540000000E-03,-1.666665E-03
-7.4538000000E-03,+3.333330E-03
-7.4536000000E-03,-1.666665E-03
-7.4534000000E-03,+6.666660E-03
-7.4532000000E-03,+3.333330E-03
-7.4530000000E-03,+0.000000E+00
-7.4528000000E-03,+8.333325E-03
-7.4526000000E-03,+0.000000E+00
-7.4524000000E-03,+8.333325E-03
-7.4522000000E-03,+0.000000E+00
-7.4520000000E-03,+3.333330E-03
-7.4518000000E-03,+1.333334E-02
-7.4516000000E-03,+4.999995E-03
-7.4514000000E-03,+3.333330E-03
-7.4512000000E-03,+4.999995E-03
-7.4510000000E-03,+1.666665E-03
-7.4508000000E-03,+1.333334E-02
-7.4506000000E-03,-6.666675E-03
-7.4504000000E-03,+8.333325E-03
-7.4502000000E-03,-6.666675E-03
-7.4500000000E-03,+6.666660E-03
-7.4498000000E-03,-3.333330E-03
-7.4496000000E-03,-1.666665E-03
-7.4494000000E-03,+6.666660E-03
-7.4492000000E-03,-1.666665E-03
-7.4490000000E-03,-4.999995E-03
-7.4488000000E-03,+6.666660E-03
-7.4486000000E-03,-8.333340E-03
-7.4484000000E-03,+1.000001E-02
-7.4482000000E-03,-1.166667E-02
-7.4480000000E-03,+4.999995E-03
-7.4478000000E-03,+1.000001E-02
-7.4476000000E-03,+6.666660E-03
-7.4474000000E-03,-6.666675E-03
-7.4472000000E-03,-4.999995E-03
-7.4470000000E-03,-1.000001E-02
-7.4468000000E-03,+8.333325E-03
-7.4466000000E-03,+8.333325E-03
-7.4464000000E-03,+3.333330E-03
-7.4462000000E-03,+3.333330E-03
-7.4460000000E-03,+0.000000E+00
-7.4458000000E-03,+0.000000E+00
-7.4456000000E-03,+4.999995E-03
-7.4454000000E-03,-4.999995E-03
-7.4452000000E-03,+1.333334E-02
-7.4450000000E-03,+8.333325E-03
-7.4448000000E-03,-6.666675E-03
-7.4446000000E-03,-3.333330E-03
-7.4444000000E-03,-1.166667E-02
-7.4442000000E-03,+4.999995E-03
-7.4440000000E-03,-4.999995E-03
-7.4438000000E-03,+3.333330E-03
-7.4436000000E-03,+3.333330E-03
-7.4434000000E-03,-1.666665E-03
-7.4432000000E-03,-3.333330E-03
-7.4430000000E-03,+6.666660E-03
-7.4428000000E-03,+1.333334E-02
-7.4426000000E-03,+1.833333E-02
-7.4424000000E-03,+1.666665E-03
-7.4422000000E-03,+6.666660E-03
-7.4420000000E-03,+0.000000E+00
-7.4418000000E-03,+0.000000E+00
-7.4416000000E-03,+4.999995E-03
-7.4414000000E-03,+6.666660E-03
-7.4412000000E-03,-6.666675E-03
-7.4410000000E-03,+8.333325E-03
-7.4408000000E-03,-6.666675E-03
-7.4406000000E-03,+1.666667E-02
-7.4404000000E-03,+1.333334E-02
-7.4402000000E-03,+4.999995E-03
-7.4400000000E-03,-4.999995E-03
-7.4398000000E-03,-2.333334E-02
-7.4396000000E-03,+0.000000E+00
-7.4394000000E-03,+0.000000E+00
-7.4392000000E-03,-4.999995E-03
-7.4390000000E-03,-1.666665E-03
-7.4388000000E-03,+3.333330E-03
-7.4386000000E-03,-1.666665E-03
-7.4384000000E-03,+1.666665E-03
-7.4382000000E-03,+8.333325E-03
-7.4380000000E-03,+1.166667E-02
-7.4378000000E-03,+2.000000E-02
-7.4376000000E-03,-1.000001E-02
-7.4374000000E-03,-4.999995E-03
-7.4372000000E-03,+0.000000E+00
-7.4370000000E-03,+8.333325E-03
-7.4368000000E-03,-3.333330E-03
-7.4366000000E-03,+3.333330E-03
-7.4364000000E-03,-4.999995E-03
-7.4362000000E-03,-4.999995E-03
-7.4360000000E-03,-4.999995E-03
-7.4358000000E-03,+0.000000E+00
-7.4356000000E-03,-6.666675E-03
-7.4354000000E-03,+6.666660E-03
-7.4352000000E-03,+8.333325E-03
-7.4350000000E-03,+6.666660E-03
-7.4348000000E-03,+1.666665E-03
-7.4346000000E-03,+1.000001E-02
-7.4344000000E-03,+1.000001E-02
-7.4342000000E-03,-8.333340E-03
-7.4340000000E-03,+6.666660E-03
-7.4338000000E-03,+1.000001E-02
-7.4336000000E-03,+4.999995E-03
-7.4334000000E-03,+4.999995E-03
-7.4332000000E-03,-3.333330E-03
-7.4330000000E-03,+1.666667E-02
-7.4328000000E-03,+1.000001E-02
-7.4326000000E-03,+8.333325E-03
-7.4324000000E-03,+0.000000E+00
-7.4322000000E-03,+4.999995E-03
-7.4320000000E-03,+3.333330E-03
-7.4318000000E-03,+8.333325E-03
-7.4316000000E-03,+6.666660E-03
-7.4314000000E-03,+1.166667E-02
-7.4312000000E-03,+3.333330E-03
-7.4310000000E-03,-1.666665E-03
-7.4308000000E-03,-6.666675E-03
-7.4306000000E-03,+1.666667E-02
-7.4304000000E-03,+1.333334E-02
-7.4302000000E-03,+3.333330E-03
-7.4300000000E-03,+6.666660E-03
-7.4298000000E-03,+4.999995E-03
-7.4296000000E-03,+0.000000E+00
-7.4294000000E-03,+1.000001E-02
-7.4292000000E-03,+6.666660E-03
-7.4290000000E-03,+8.333325E-03
-7.4288000000E-03,+1.833333E-02
-7.4286000000E-03,+1.666667E-02
-7.4284000000E-03,+1.166667E-02
-7.4282000000E-03,-1.833333E-02
-7.4280000000E-03,+4.999995E-03
-7.4278000000E-03,+6.666660E-03
-7.4276000000E-03,+3.333330E-03
-7.4274000000E-03,-3.333330E-03
-7.4272000000E-03,-8.333340E-03
-7.4270000000E-03,-6.666675E-03
-7.4268000000E-03,+1.666665E-03
-7.4266000000E-03,-1.666665E-03
-7.4264000000E-03,-3.333330E-03
-7.4262000000E-03,+6.666660E-03
-7.4260000000E-03,+3.333330E-03
-7.4258000000E-03,+0.000000E+00
-7.4256000000E-03,-6.666675E-03
-7.4254000000E-03,+4.999995E-03
-7.4252000000E-03,+1.166667E-02
-7.4250000000E-03,+6.666660E-03
-7.4248000000E-03,+1.666665E-03
-7.4246000000E-03,+6.666660E-03
-7.4244000000E-03,+3.333330E-03
-7.4242000000E-03,+4.999995E-03
-7.4240000000E-03,-1.666665E-03
-7.4238000000E-03,+1.000001E-02
-7.4236000000E-03,+1.333334E-02
-7.4234000000E-03,+1.333334E-02
-7.4232000000E-03,+1.666665E-03
-7.4230000000E-03,-4.999995E-03
-7.4228000000E-03,+8.333325E-03
-7.4226000000E-03,+1.166667E-02
-7.4224000000E-03,+1.666665E-03
-7.4222000000E-03,+3.333330E-03
-7.4220000000E-03,-6.666675E-03
-7.4218000000E-03,+8.333325E-03
-7.4216000000E-03,+0.000000E+00
-7.4214000000E-03,-1.166667E-02
-7.4212000000E-03,+4.999995E-03
-7.4210000000E-03,-1.666665E-03
-7.4208000000E-03,+1.333334E-02
-7.4206000000E-03,+8.333325E-03
-7.4204000000E-03,+0.000000E+00
-7.4202000000E-03,+1.666667E-02
-7.4200000000E-03,-1.666665E-03
-7.4198000000E-03,+0.000000E+00
-7.4196000000E-03,-3.333330E-03
-7.4194000000E-03,-8.333340E-03
-7.4192000000E-03,-6.666675E-03
-7.4190000000E-03,+3.333330E-03
-7.4188000000E-03,+1.333334E-02
-7.4186000000E-03,+6.666660E-03
-7.4184000000E-03,-1.666665E-03
-7.4182000000E-03,+1.166667E-02
-7.4180000000E-03,+1.666665E-03
-7.4178000000E-03,+1.333334E-02
-7.4176000000E-03,+1.666665E-03
-7.4174000000E-03,-1.666665E-03
-7.4172000000E-03,-6.666675E-03
-7.4170000000E-03,+1.500000E-02
-7.4168000000E-03,-1.333334E-02
-7.4166000000E-03,+3.333330E-03
-7.4164000000E-03,-1.666665E-03
-7.4162000000E-03,+8.333325E-03
-7.4160000000E-03,+2.000000E-02
-7.4158000000E-03,+6.666660E-03
-7.4156000000E-03,-4.999995E-03
-7.4154000000E-03,+3.333330E-03
-7.4152000000E-03,+0.000000E+00
-7.4150000000E-03,-1.000001E-02
-7.4148000000E-03,+3.333330E-03
-7.4146000000E-03,-1.666665E-03
-7.4144000000E-03,+3.333330E-03
-7.4142000000E-03,-3.333330E-03
-7.4140000000E-03,-8.333340E-03
-7.4138000000E-03,+1.666665E-03
-7.4136000000E-03,-3.333330E-03
-7.4134000000E-03,-3.333330E-03
-7.4132000000E-03,-4.999995E-03
-7.4130000000E-03,+1.000001E-02
-7.4128000000E-03,+4.999995E-03
-7.4126000000E-03,-1.166667E-02
-7.4124000000E-03,-1.666665E-03
-7.4122000000E-03,-1.000001E-02
-7.4120000000E-03,+1.666667E-02
-7.4118000000E-03,+1.500000E-02
-7.4116000000E-03,+3.333330E-03
-7.4114000000E-03,+1.333334E-02
-7.4112000000E-03,+1.166667E-02
-7.4110000000E-03,+1.333334E-02
-7.4108000000E-03,-1.666665E-03
-7.4106000000E-03,+1.666665E-03
-7.4104000000E-03,-6.666675E-03
-7.4102000000E-03,+3.333330E-03
-7.4100000000E-03,+1.333334E-02
-7.4098000000E-03,+0.000000E+00
-7.4096000000E-03,+1.666665E-03
-7.4094000000E-03,+1.166667E-02
-7.4092000000E-03,+1.000001E-02
-7.4090000000E-03,+4.999995E-03
-7.4088000000E-03,+8.333325E-03
-7.4086000000E-03,-1.666665E-03
-7.4084000000E-03,+8.333325E-03
-7.4082000000E-03,+1.000001E-02
-7.4080000000E-03,+0.000000E+00
-7.4078000000E-03,+0.000000E+00
-7.4076000000E-03,-6.666675E-03
-7.4074000000E-03,+1.666665E-03
-7.4072000000E-03,-6.666675E-03
-7.4070000000E-03,+1.666667E-02
-7.4068000000E-03,+1.666665E-03
-7.4066000000E-03,-3.333330E-03
-7.4064000000E-03,+0.000000E+00
-7.4062000000E-03,+6.666660E-03
-7.4060000000E-03,-1.666665E-03
-7.4058000000E-03,+6.666660E-03
-7.4056000000E-03,+1.000001E-02
-7.4054000000E-03,+3.333330E-03
-7.4052000000E-03,-4.999995E-03
-7.4050000000E-03,+0.000000E+00
-7.4048000000E-03,-3.333330E-03
-7.4046000000E-03,+6.666660E-03
-7.4044000000E-03,-4.999995E-03
-7.4042000000E-03,+1.666665E-03
-7.4040000000E-03,+1.666665E-03
-7.4038000000E-03,+1.500000E-02
-7.4036000000E-03,+1.666665E-03
-7.4034000000E-03,-3.333330E-03
-7.4032000000E-03,+8.333325E-03
-7.4030000000E-03,+1.166667E-02
-7.4028000000E-03,+1.500000E-02
-7.4026000000E-03,-6.666675E-03
-7.4024000000E-03,-1.666665E-03
-7.4022000000E-03,+3.333330E-03
-7.4020000000E-03,+3.333330E-03
-7.4018000000E-03,-3.333330E-03
-7.4016000000E-03,+1.666665E-03
-7.4014000000E-03,-4.999995E-03
-7.4012000000E-03,-8.333340E-03
-7.4010000000E-03,+1.000001E-02
-7.4008000000E-03,-3.333330E-03
-7.4006000000E-03,-8.333340E-03
-7.4004000000E-03,+1.666665E-03
-7.4002000000E-03,-1.666665E-03
-7.4000000000E-03,+6.666660E-03
-7.3998000000E-03,+1.166667E-02
-7.3996000000E-03,+1.000001E-02
-7.3994000000E-03,+0.000000E+00
-7.3992000000E-03,-1.666665E-03
-7.3990000000E-03,+1.666665E-03
-7.3988000000E-03,-1.666665E-03
-7.3986000000E-03,+6.666660E-03
-7.3984000000E-03,+6.666660E-03
-7.3982000000E-03,-6.666675E-03
-7.3980000000E-03,-1.666665E-03
-7.3978000000E-03,+1.500000E-02
-7.3976000000E-03,+3.333330E-03
-7.3974000000E-03,+1.333334E-02
-7.3972000000E-03,-1.666667E-02
